{
  "artifactGenerations" : [ ],
  "artifactId" : "test-models",
  "groupId" : "com.gs",
  "metamodelDependencies" : [ ],
  "projectDependencies" : [ ],
  "projectId" : "40958610",
  "projectStructureVersion" : {
    "extensionVersion" : 2,
    "version" : 12
  }
}